{
  "vocab_words":[
    {"word":"Appel","category":"Food","video_name":"appel"},
    {"word":"Boter","category":"Food","video_name":"boter"},
    {"word":"Brood","category":"Food","video_name":"brood"},
    {"word":"Jam","category":"Food","video_name":"jam"},
    {"word":"Melk","category":"Food","video_name":"melk"},
    {"word":"Kaas","category":"Food","video_name":"kaas"},

    {"word":"Blauw","category":"Colors","video_name":"blauw"},
    {"word":"Geel","category":"Colors","video_name":"geel"},
    {"word":"Groen","category":"Colors","video_name":"groen"},
    {"word":"Rood","category":"Colors","video_name":"rood"},

    {"word":"Hond","category":"Animals","video_name":"hond"},
    {"word":"Kat","category":"Animals","video_name":"kat"},
    {"word":"Vis","category":"Animals","video_name":"vis"},
    {"word":"Vogel","category":"Animals","video_name":"vogel"}
  ]
}